<svg width="159" height="40" viewBox="0 0 159 40" fill="none" xmlns="http://www.w3.org/2000/svg">
<path d="M47.7421 16.0134C48.0226 16.0134 48.2329 16.225 48.2329 16.5072V17.1421C48.9339 16.3661 50.0556 15.8018 51.4578 15.8018C53.1403 15.8018 54.3321 16.4367 55.1033 17.4949C56.0146 16.4367 57.3466 15.8018 58.889 15.8018C62.1839 15.8018 63.6562 17.7771 63.6562 21.0928V27.3714C63.6562 27.6536 63.4458 27.8652 63.1654 27.8652H60.922C60.6416 27.8652 60.4313 27.6536 60.4313 27.3714V21.3749C60.4313 19.7524 59.7302 18.7647 58.3281 18.7647C56.9961 18.7647 56.0146 19.4702 56.0146 21.0222V27.3714C56.0146 27.6536 55.8043 27.8652 55.5239 27.8652H53.2805C53.0001 27.8652 52.7898 27.6536 52.7898 27.3714V21.3749C52.7898 19.7524 52.2289 18.7647 50.7567 18.7647C49.2144 18.7647 48.3731 19.7524 48.3731 21.3749V27.3714C48.3731 27.6536 48.1628 27.8652 47.8824 27.8652H45.5689C45.2884 27.8652 45.0781 27.6536 45.0781 27.3714V16.5778C45.0781 16.2956 45.2884 16.0839 45.5689 16.0839H47.7421V16.0134Z" fill="white"/>
<path d="M77.3267 19.8234C77.3267 22.4336 75.1534 23.3507 71.578 23.3507H69.1944C69.6851 24.8322 70.8769 25.326 72.8399 25.326C74.1018 25.326 75.3637 25.0438 76.205 24.6206C76.5555 24.4795 76.906 24.6911 76.906 25.0438V26.8075C76.906 27.0192 76.8359 27.1602 76.6256 27.2308C75.6441 27.7246 74.242 28.0774 72.4193 28.0774C68.6335 28.0774 65.8994 26.0315 65.8994 21.8692C65.8994 17.9892 68.6335 15.6611 72.279 15.6611C75.1534 15.7317 77.3267 17.2132 77.3267 19.8234ZM68.9841 21.0227H71.9986C73.5409 21.0227 74.242 20.7405 74.242 19.8939C74.242 19.1179 73.6111 18.483 72.279 18.483C70.6666 18.483 69.3346 19.3296 68.9841 21.0227Z" fill="white"/>
<path d="M90.787 27.8651H88.5436C88.2632 27.8651 88.0528 27.6535 88.0528 27.3713V26.7364C87.4219 27.4418 86.4404 28.0768 84.6878 28.0768C81.3928 28.0768 79.1494 25.8193 79.1494 22.0803C79.1494 18.1297 81.6031 15.8722 84.8981 15.8722C86.5105 15.8722 87.492 16.4366 88.0528 17.0009C88.0528 16.0838 87.9827 15.0256 87.9827 14.6023V11.9216C87.9827 11.6394 88.1931 11.4277 88.4735 11.4277H90.7169C90.9973 11.4277 91.2076 11.6394 91.2076 11.9216V27.4418C91.2777 27.6535 91.0674 27.8651 90.787 27.8651ZM88.123 21.9392C88.123 19.9639 87.0013 18.8351 85.3187 18.8351C83.6362 18.8351 82.3743 20.0344 82.3743 22.0803C82.3743 24.0556 83.5661 25.2549 85.2486 25.2549C87.0013 25.1843 88.123 23.9851 88.123 21.9392Z" fill="white"/>
<path d="M94.4326 13.0508C94.4326 11.922 95.2739 11.2871 96.2554 11.2871C97.2369 11.2871 98.0781 11.922 98.0781 13.0508C98.0781 14.1795 97.2369 14.8144 96.2554 14.8144C95.2739 14.8144 94.4326 14.1795 94.4326 13.0508ZM95.1337 16.0137H97.3771C97.6575 16.0137 97.8678 16.2254 97.8678 16.5076V27.3718C97.8678 27.654 97.6575 27.8656 97.3771 27.8656H95.1337C94.8533 27.8656 94.6429 27.654 94.6429 27.3718V16.5781C94.6429 16.2959 94.8533 16.0137 95.1337 16.0137Z" fill="white"/>
<path d="M101.233 17.0716C101.233 16.86 101.373 16.6483 101.513 16.5778C102.705 16.0839 104.317 15.8018 105.79 15.8018C109.435 15.8018 111.118 17.4949 111.047 20.9517L110.977 24.3379C110.977 25.255 111.538 25.3961 111.959 25.3961C112.169 25.3961 112.379 25.6078 112.379 25.8194V27.442C112.379 27.6536 112.239 27.8652 112.029 27.9358C111.678 28.0769 111.258 28.1474 110.697 28.1474C109.295 28.1474 108.524 27.5125 108.173 26.5954C107.402 27.5125 106.07 28.1474 104.317 28.1474C101.864 28.1474 100.321 26.8776 100.321 24.6201C100.321 21.7982 102.354 20.74 105.649 20.74H107.893C107.893 19.2585 107.051 18.6942 105.439 18.6942C104.177 18.6942 102.915 18.9764 101.794 19.4702C101.443 19.6113 101.092 19.3996 101.092 18.9764L101.233 17.0716ZM108.033 22.9975L105.93 22.927C104.458 22.927 103.686 23.3503 103.686 24.2674C103.686 25.1139 104.387 25.3961 105.299 25.3961C106.841 25.3961 108.033 24.6201 108.033 22.9975Z" fill="white"/>
<path d="M115.184 11.3574H117.427C117.708 11.3574 117.918 11.5691 117.918 11.8512V15.5902V17.0717C118.619 16.4368 119.881 15.8724 121.493 15.8724C124.578 15.8724 126.19 18.0594 126.19 20.9518V27.4421C126.19 27.7243 125.98 27.9359 125.7 27.9359H123.456C123.176 27.9359 122.965 27.7243 122.965 27.4421V21.3751C122.965 19.9641 121.844 18.7648 120.512 18.8354C119.04 18.8354 117.988 19.7525 117.988 21.6572V27.4421C117.988 27.7243 117.778 27.9359 117.497 27.9359H115.254C114.973 27.9359 114.763 27.7243 114.763 27.4421V11.9218C114.693 11.6396 114.903 11.3574 115.184 11.3574Z" fill="white"/>
<path d="M140.352 22.9273C140.352 26.1724 138.109 28.1477 134.673 28.1477C131.238 28.1477 128.925 26.1724 128.925 22.9273V16.5075C128.925 16.2253 129.135 16.0137 129.416 16.0137H131.729C132.009 16.0137 132.22 16.2253 132.22 16.5075V22.6451C132.22 24.1265 133.061 25.1142 134.673 25.1142C136.286 25.1142 137.057 24.1265 137.057 22.6451V16.5075C137.057 16.2253 137.267 16.0137 137.548 16.0137H139.861C140.142 16.0137 140.352 16.2253 140.352 16.5075V22.9273Z" fill="white"/>
<path d="M145.82 11.3574C146.1 11.3574 146.311 11.5691 146.311 11.8512V14.9553C146.311 15.3786 146.311 16.2251 146.241 17.0012C147.152 16.2251 148.344 15.8019 149.816 15.8019C153.251 15.8019 155.284 18.0594 155.284 21.7983C155.284 25.89 152.901 28.2181 149.255 28.2181C145.47 28.2181 143.086 26.1722 143.086 22.0805V11.9218C143.086 11.6396 143.296 11.428 143.577 11.428L145.82 11.3574ZM149.255 18.8354C147.503 18.8354 146.311 19.9641 146.311 22.01C146.311 23.9853 147.432 25.1846 149.255 25.1846C151.078 25.1846 152.059 23.8442 152.059 21.9394C152.059 19.8936 150.938 18.8354 149.255 18.8354Z" fill="white"/>
<path d="M23.2052 26.6666C23.1351 26.7372 22.2237 27.7954 20.7515 27.7954C19.2793 27.7954 18.2978 26.7372 18.2978 26.6666L12.5491 20.8818C11.778 20.1058 10.5161 20.1058 9.7449 20.8818L4.76739 25.8906C4.41686 26.2434 4.20654 26.8077 4.20654 27.3016V30.7584C4.20654 32.9453 5.95919 34.7795 8.20257 34.7795H30.0756C32.2489 34.7795 34.0716 33.0159 34.0716 30.7584V30.6173C34.0716 30.0529 33.8613 29.5591 33.5108 29.2063L28.5333 24.1975C27.7621 23.4215 26.5002 23.4215 25.729 24.1975L23.2052 26.6666Z" fill="#2B984B"/>
<path d="M11.147 11.6404C12.0584 11.5698 12.9698 11.9226 13.6708 12.628L19.9804 18.9772C20.401 19.4005 21.0319 19.4005 21.3825 18.9772L24.4671 15.8732C25.1682 15.1677 26.0796 14.815 26.9909 14.8855C27.9023 14.815 28.8137 15.1677 29.5147 15.8732L32.1788 18.554C32.8097 19.1889 33.8613 18.7656 33.8613 17.8485V8.67741C33.8613 6.49047 32.1087 4.65625 29.8653 4.65625H8.20257C6.02929 4.7268 4.20654 6.56101 4.20654 8.74796V14.6033C4.20654 15.5204 5.25813 15.9437 5.88908 15.3088L8.5531 12.628C9.32427 11.852 10.2356 11.5698 11.147 11.6404Z" fill="#41AAC5"/>
</svg>
